library,whitespace-preserving,has renderer,notes
marko,yes,no,No Markdown renderer available.
markdown-it,not tested,via mdformat,mdformat is opinionated and will normalize the document.
mistletoe,yes,yes,"Perfect roundtrips, as long as the document doesn’t contain invalid Markdown."
mistune,not quite,yes,Unnecessary whitespace will be removed. Some tokens will be normalized.
pandoc,no,yes,"Normalized on read and (very customizable, but still) on render."
python-markdown,not tested,no,No Markdown renderer available.
